%YAML 1.1
%TAG !u! tag:unity3d.com,2011:
--- !u!114 &11400000
MonoBehaviour:
  m_ObjectHideFlags: 0
  m_PrefabParentObject: {fileID: 0}
  m_PrefabInternal: {fileID: 0}
  m_GameObject: {fileID: 0}
  m_Enabled: 1
  m_EditorHideFlags: 0
  m_Script: {fileID: 11500000, guid: 5b53eb0ce35379e418b5ab10aedc6f64, type: 3}
  m_Name: Level2
  m_EditorClassIdentifier: 
  _ships:
  - _prefab: {fileID: 1676662400553082, guid: 60db036323e9ab94a96c4f666478a063, type: 2}
    _position: {x: 0.15, y: 3.08, z: 0}
  - _prefab: {fileID: 1691210133207970, guid: b8793c7dab1cdc94ba5ab1d36d512338, type: 2}
    _position: {x: 3.36, y: 4.9, z: 0}
  - _prefab: {fileID: 1118205465389408, guid: 4b96e1aefaf440d4c85074ef556c82f7, type: 2}
    _position: {x: -3.02, y: 4.9, z: 0}
  - _prefab: {fileID: 1676662400553082, guid: 60db036323e9ab94a96c4f666478a063, type: 2}
    _position: {x: 1.29, y: 5.09, z: 0}
  - _prefab: {fileID: 1691210133207970, guid: b8793c7dab1cdc94ba5ab1d36d512338, type: 2}
    _position: {x: -0.86, y: 4.99, z: 0}
  - _prefab: {fileID: 1676662400553082, guid: 60db036323e9ab94a96c4f666478a063, type: 2}
    _position: {x: 6.41, y: 7, z: 0}
  - _prefab: {fileID: 1691210133207970, guid: b8793c7dab1cdc94ba5ab1d36d512338, type: 2}
    _position: {x: 4.32, y: 6.87, z: 0}
  - _prefab: {fileID: 1118205465389408, guid: 4b96e1aefaf440d4c85074ef556c82f7, type: 2}
    _position: {x: 2.4, y: 6.75, z: 0}
  - _prefab: {fileID: 1394537509277296, guid: 7b68e30d9b127844b96c3a0884e7ef88, type: 2}
    _position: {x: 0.28, y: 6.87, z: 0}
  - _prefab: {fileID: 1118205465389408, guid: 4b96e1aefaf440d4c85074ef556c82f7, type: 2}
    _position: {x: -1.91, y: 7, z: 0}
  - _prefab: {fileID: 1691210133207970, guid: b8793c7dab1cdc94ba5ab1d36d512338, type: 2}
    _position: {x: -4.1, y: 6.84, z: 0}
  - _prefab: {fileID: 1676662400553082, guid: 60db036323e9ab94a96c4f666478a063, type: 2}
    _position: {x: -6.07, y: 7, z: 0}
